{
  "$schema": "http://json-schema.org/draft-04/schema#",
  "description": "Schema for Atlassian Document Format.",
  "$ref": "#/definitions/doc_node",
  "definitions": {
    "paragraph_node": {
      "type": "object",
      "properties": {
        "type": {
          "enum": [
            "paragraph"
          ]
        },
        "content": {
          "type": "array",
          "items": {
            "$ref": "#/definitions/inline_node"
          }
        }
      },
      "required": [
        "type",
        "content"
      ],
      "additionalProperties": false
    },
    "bulletList_node": {
      "type": "object",
      "properties": {
        "type": {
          "enum": [
            "bulletList"
          ]
        },
        "content": {
          "type": "array",
          "items": {
            "$ref": "#/definitions/listItem_node"
          },
          "minItems": 1
        }
      },
      "required": [
        "type",
        "content"
      ],
      "additionalProperties": false
    },
    "media_node": {
      "type": "object",
      "properties": {
        "type": {
          "enum": [
            "media"
          ]
        },
        "attrs": {
          "anyOf": [
            {
              "type": "object",
              "properties": {
                "type": {
                  "enum": [
                    "link",
                    "file"
                  ]
                },
                "id": {
                  "type": "string",
                  "minLength": 1
                },
                "collection": {
                  "type": "string"
                },
                "height": {
                  "type": "number"
                },
                "width": {
                  "type": "number"
                },
                "occurrenceKey": {
                  "type": "string",
                  "minLength": 1
                }
              },
              "required": [
                "type",
                "id",
                "collection"
              ],
              "additionalProperties": false
            },
            {
              "type": "object",
              "properties": {
                "type": {
                  "enum": [
                    "external"
                  ]
                },
                "url": {
                  "type": "string"
                },
                "width": {
                  "type": "number"
                },
                "height": {
                  "type": "number"
                }
              },
              "required": [
                "type",
                "url"
              ],
              "additionalProperties": false
            }
          ]
        }
      },
      "required": [
        "type",
        "attrs"
      ],
      "additionalProperties": false
    },
    "mediaSingle_node": {
      "type": "object",
      "properties": {
        "type": {
          "enum": [
            "mediaSingle"
          ]
        },
        "content": {
          "type": "array",
          "items": {
            "$ref": "#/definitions/media_node"
          },
          "minItems": 1,
          "maxItems": 1
        },
        "attrs": {
          "type": "object",
          "properties": {
            "layout": {
              "enum": [
                "wrap-right",
                "center",
                "wrap-left",
                "wide",
                "full-width"
              ]
            }
          },
          "required": [
            "layout"
          ],
          "additionalProperties": false
        }
      },
      "required": [
        "type",
        "content"
      ],
      "additionalProperties": false
    },
    "listItem_node": {
      "type": "object",
      "properties": {
        "type": {
          "enum": [
            "listItem"
          ]
        },
        "content": {
          "type": "array",
          "items": [
            {
              "anyOf": [
                {
                  "$ref": "#/definitions/paragraph_node"
                },
                {
                  "$ref": "#/definitions/mediaSingle_node"
                }
              ]
            },
            {
              "anyOf": [
                {
                  "$ref": "#/definitions/paragraph_node"
                },
                {
                  "$ref": "#/definitions/bulletList_node"
                },
                {
                  "$ref": "#/definitions/mediaSingle_node"
                },
                {
                  "$ref": "#/definitions/orderedList_node"
                }
              ]
            }
          ],
          "minItems": 1
        }
      },
      "required": [
        "type",
        "content"
      ],
      "additionalProperties": false
    },
    "orderedList_node": {
      "type": "object",
      "properties": {
        "type": {
          "enum": [
            "orderedList"
          ]
        },
        "content": {
          "type": "array",
          "items": {
            "$ref": "#/definitions/listItem_node"
          },
          "minItems": 1
        },
        "attrs": {
          "type": "object",
          "properties": {
            "order": {
              "type": "number",
              "minimum": 1
            }
          },
          "required": [
            "order"
          ],
          "additionalProperties": false
        }
      },
      "required": [
        "type",
        "content"
      ],
      "additionalProperties": false
    },
    "heading_node": {
      "type": "object",
      "properties": {
        "type": {
          "enum": [
            "heading"
          ]
        },
        "content": {
          "type": "array",
          "items": {
            "$ref": "#/definitions/inline_node"
          }
        },
        "attrs": {
          "type": "object",
          "properties": {
            "level": {
              "type": "number",
              "minimum": 1,
              "maximum": 6
            }
          },
          "required": [
            "level"
          ],
          "additionalProperties": false
        }
      },
      "required": [
        "type",
        "content",
        "attrs"
      ],
      "additionalProperties": false
    },
    "panel_node": {
      "type": "object",
      "properties": {
        "type": {
          "enum": [
            "panel"
          ]
        },
        "attrs": {
          "type": "object",
          "properties": {
            "panelType": {
              "enum": [
                "info",
                "note",
                "tip",
                "warning",
                "error",
                "success"
              ]
            }
          },
          "required": [
            "panelType"
          ],
          "additionalProperties": false
        },
        "content": {
          "type": "array",
          "items": {
            "anyOf": [
              {
                "$ref": "#/definitions/paragraph_node"
              },
              {
                "$ref": "#/definitions/bulletList_node"
              },
              {
                "$ref": "#/definitions/orderedList_node"
              },
              {
                "$ref": "#/definitions/heading_node"
              }
            ]
          },
          "minItems": 1
        }
      },
      "required": [
        "type",
        "attrs",
        "content"
      ],
      "additionalProperties": false
    },
    "blockquote_node": {
      "type": "object",
      "properties": {
        "type": {
          "enum": [
            "blockquote"
          ]
        },
        "content": {
          "type": "array",
          "items": {
            "$ref": "#/definitions/paragraph_node"
          },
          "minItems": 1
        }
      },
      "required": [
        "type",
        "content"
      ],
      "additionalProperties": false
    },
    "rule_node": {
      "type": "object",
      "properties": {
        "type": {
          "enum": [
            "rule"
          ]
        }
      },
      "required": [
        "type"
      ],
      "additionalProperties": false
    },
    "hardBreak_node": {
      "type": "object",
      "properties": {
        "type": {
          "enum": [
            "hardBreak"
          ]
        },
        "attrs": {
          "type": "object",
          "properties": {
            "text": {
              "enum": [
                "\n"
              ]
            }
          },
          "additionalProperties": false
        }
      },
      "required": [
        "type"
      ],
      "additionalProperties": false
    },
    "emoji_node": {
      "type": "object",
      "properties": {
        "type": {
          "enum": [
            "emoji"
          ]
        },
        "attrs": {
          "type": "object",
          "properties": {
            "id": {
              "type": "string"
            },
            "shortName": {
              "type": "string"
            },
            "text": {
              "type": "string"
            }
          },
          "additionalProperties": false,
          "required": [
            "shortName"
          ]
        }
      },
      "required": [
        "type",
        "attrs"
      ],
      "additionalProperties": false
    },
    "mention_node": {
      "type": "object",
      "properties": {
        "type": {
          "enum": [
            "mention"
          ]
        },
        "attrs": {
          "type": "object",
          "properties": {
            "id": {
              "type": "string"
            },
            "text": {
              "type": "string"
            },
            "userType": {
              "enum": [
                "DEFAULT",
                "SPECIAL",
                "APP"
              ]
            },
            "accessLevel": {
              "type": "string"
            }
          },
          "required": [
            "id"
          ],
          "additionalProperties": false
        }
      },
      "required": [
        "type",
        "attrs"
      ],
      "additionalProperties": false
    },
    "text_node": {
      "type": "object",
      "properties": {
        "type": {
          "enum": [
            "text"
          ]
        },
        "text": {
          "type": "string",
          "minLength": 1
        },
        "marks": {
          "type": "array"
        }
      },
      "required": [
        "type",
        "text"
      ],
      "additionalProperties": false
    },
    "mediaGroup_node": {
      "type": "object",
      "properties": {
        "type": {
          "enum": [
            "mediaGroup"
          ]
        },
        "content": {
          "type": "array",
          "items": {
            "$ref": "#/definitions/media_node"
          },
          "minItems": 1
        }
      },
      "required": [
        "type",
        "content"
      ],
      "additionalProperties": false
    },
    "table_node": {
      "type": "object",
      "properties": {
        "type": {
          "enum": [
            "table"
          ]
        },
        "attrs": {
          "type": "object",
          "properties": {
            "isNumberColumnEnabled": {
              "type": "boolean"
            },
            "layout": {
              "enum": [
                "wide",
                "full-width",
                "default"
              ]
            }
          },
          "additionalProperties": false
        },
        "content": {
          "type": "array",
          "items": {
            "$ref": "#/definitions/table_row_node"
          },
          "minItems": 1
        }
      },
      "required": [
        "type",
        "content"
      ],
      "additionalProperties": false
    },
    "table_row_node": {
      "type": "object",
      "properties": {
        "type": {
          "enum": [
            "tableRow"
          ]
        },
        "content": {
          "anyOf": [
            {
              "type": "array",
              "items": {
                "$ref": "#/definitions/table_header_node"
              }
            },
            {
              "type": "array",
              "items": {
                "$ref": "#/definitions/table_cell_node"
              }
            }
          ]
        }
      },
      "required": [
        "type",
        "content"
      ],
      "additionalProperties": false
    },
    "table_cell_node": {
      "type": "object",
      "properties": {
        "type": {
          "enum": [
            "tableCell"
          ]
        },
        "attrs": {
          "type": "object",
          "properties": {
            "colspan": {
              "type": "number"
            },
            "rowspan": {
              "type": "number"
            },
            "colwidth": {
              "type": "array",
              "items": {
                "type": "number"
              }
            },
            "background": {
              "type": "string"
            }
          },
          "additionalProperties": false
        },
        "content": {
          "$ref": "#/definitions/table_cell_content"
        }
      },
      "required": [
        "type",
        "content"
      ],
      "additionalProperties": false
    },
    "table_header_node": {
      "type": "object",
      "properties": {
        "type": {
          "enum": [
            "tableHeader"
          ]
        },
        "attrs": {
          "type": "object",
          "properties": {
            "colspan": {
              "type": "number"
            },
            "rowspan": {
              "type": "number"
            },
            "colwidth": {
              "type": "array",
              "items": {
                "type": "number"
              }
            },
            "background": {
              "type": "string"
            }
          },
          "additionalProperties": false
        },
        "content": {
          "$ref": "#/definitions/table_cell_content"
        }
      },
      "required": [
        "type",
        "content"
      ],
      "additionalProperties": false
    },
    "applicationCard_node": {
      "type": "object",
      "properties": {
        "type": {
          "enum": [
            "applicationCard"
          ]
        },
        "attrs": {
          "type": "object",
          "properties": {
            "text": {
              "type": "string"
            },
            "textUrl": {
              "type": "string"
            },
            "link": {
              "type": "object",
              "properties": {
                "url": {
                  "type": "string",
                  "pattern": "^https?://|^data:image/"
                }
              },
              "required": [
                "url"
              ],
              "additionalProperties": false
            },
            "background": {
              "type": "object",
              "properties": {
                "url": {
                  "type": "string",
                  "pattern": "^https://|^data:image/"
                }
              },
              "required": [
                "url"
              ],
              "additionalProperties": false
            },
            "collapsible": {
              "type": "boolean"
            },
            "preview": {
              "type": "object",
              "properties": {
                "url": {
                  "type": "string",
                  "pattern": "^https://|^data:image/"
                }
              },
              "required": [
                "url"
              ],
              "additionalProperties": false
            },
            "title": {
              "type": "object",
              "properties": {
                "text": {
                  "type": "string"
                },
                "user": {
                  "type": "object",
                  "properties": {
                    "id": {
                      "type": "string"
                    },
                    "icon": {
                      "type": "object",
                      "properties": {
                        "url": {
                          "type": "string",
                          "pattern": "^https://|^data:image/"
                        },
                        "label": {
                          "type": "string"
                        }
                      },
                      "required": [
                        "url",
                        "label"
                      ],
                      "additionalProperties": false
                    }
                  },
                  "additionalProperties": false,
                  "required": [
                    "icon"
                  ]
                }
              },
              "required": [
                "text"
              ],
              "additionalProperties": false
            },
            "description": {
              "type": "object",
              "properties": {
                "text": {
                  "type": "string"
                }
              },
              "required": [
                "text"
              ],
              "additionalProperties": false
            },
            "details": {
              "type": "array",
              "items": {
                "type": "object",
                "properties": {
                  "title": {
                    "type": "string"
                  },
                  "text": {
                    "type": "string"
                  },
                  "icon": {
                    "type": "object",
                    "properties": {
                      "url": {
                        "type": "string",
                        "pattern": "^https://|^data:image/"
                      },
                      "label": {
                        "type": "string"
                      }
                    },
                    "required": [
                      "url",
                      "label"
                    ],
                    "additionalProperties": false
                  },
                  "badge": {
                    "type": "object",
                    "properties": {
                      "value": {
                        "type": "number"
                      },
                      "max": {
                        "type": "number"
                      },
                      "theme": {
                        "enum": [
                          "default",
                          "dark"
                        ]
                      },
                      "appearance": {
                        "enum": [
                          "default",
                          "primary",
                          "important",
                          "added",
                          "removed"
                        ]
                      }
                    },
                    "required": [
                      "value"
                    ],
                    "additionalProperties": false
                  },
                  "lozenge": {
                    "type": "object",
                    "properties": {
                      "text": {
                        "type": "string"
                      },
                      "bold": {
                        "type": "boolean"
                      },
                      "appearance": {
                        "enum": [
                          "success",
                          "default",
                          "removed",
                          "inprogress",
                          "new",
                          "moved"
                        ]
                      }
                    },
                    "required": [
                      "text"
                    ],
                    "additionalProperties": false
                  },
                  "users": {
                    "type": "array",
                    "items": {
                      "type": "object",
                      "properties": {
                        "id": {
                          "type": "string"
                        },
                        "icon": {
                          "type": "object",
                          "properties": {
                            "url": {
                              "type": "string",
                              "pattern": "^https://|^data:image/"
                            },
                            "label": {
                              "type": "string"
                            }
                          },
                          "required": [
                            "url",
                            "label"
                          ],
                          "additionalProperties": false
                        }
                      },
                      "additionalProperties": false,
                      "required": [
                        "icon"
                      ]
                    }
                  }
                },
                "additionalProperties": false
              }
            },
            "actions": {
              "type": "array",
              "items": {
                "type": "object",
                "properties": {
                  "key": {
                    "type": "string"
                  },
                  "title": {
                    "type": "string"
                  },
                  "target": {
                    "type": "object",
                    "properties": {
                      "receiver": {
                        "type": "string"
                      },
                      "key": {
                        "type": "string"
                      }
                    },
                    "additionalProperties": false,
                    "required": [
                      "key"
                    ]
                  },
                  "parameters": {}
                },
                "additionalProperties": false,
                "required": [
                  "title",
                  "target"
                ]
              }
            },
            "context": {
              "type": "object",
              "properties": {
                "text": {
                  "type": "string"
                },
                "icon": {
                  "type": "object",
                  "properties": {
                    "url": {
                      "type": "string",
                      "pattern": "^https://|^data:image/"
                    },
                    "label": {
                      "type": "string"
                    }
                  },
                  "required": [
                    "url",
                    "label"
                  ],
                  "additionalProperties": false
                }
              },
              "required": [
                "text"
              ],
              "additionalProperties": false
            }
          },
          "required": [
            "text",
            "title"
          ],
          "additionalProperties": false
        }
      },
      "required": [
        "type",
        "attrs"
      ],
      "additionalProperties": false
    },
    "decisionItem_node": {
      "type": "object",
      "properties": {
        "type": {
          "enum": [
            "decisionItem"
          ]
        },
        "content": {
          "type": "array",
          "items": {
            "$ref": "#/definitions/inline_node"
          }
        },
        "attrs": {
          "type": "object",
          "properties": {
            "localId": {
              "type": "string"
            },
            "state": {
              "type": "string"
            }
          },
          "required": [
            "localId",
            "state"
          ],
          "additionalProperties": false
        }
      },
      "required": [
        "type",
        "content",
        "attrs"
      ],
      "additionalProperties": false
    },
    "decisionList_node": {
      "type": "object",
      "properties": {
        "type": {
          "enum": [
            "decisionList"
          ]
        },
        "content": {
          "type": "array",
          "items": {
            "$ref": "#/definitions/decisionItem_node"
          },
          "minItems": 1
        },
        "attrs": {
          "type": "object",
          "properties": {
            "localId": {
              "type": "string"
            }
          },
          "required": [
            "localId"
          ],
          "additionalProperties": false
        }
      },
      "required": [
        "type",
        "content",
        "attrs"
      ],
      "additionalProperties": false
    },
    "taskItem_node": {
      "type": "object",
      "properties": {
        "type": {
          "enum": [
            "taskItem"
          ]
        },
        "content": {
          "type": "array",
          "items": {
            "$ref": "#/definitions/inline_node"
          }
        },
        "attrs": {
          "type": "object",
          "properties": {
            "localId": {
              "type": "string"
            },
            "state": {
              "enum": [
                "TODO",
                "DONE"
              ]
            }
          },
          "required": [
            "localId",
            "state"
          ],
          "additionalProperties": false
        }
      },
      "required": [
        "type",
        "content",
        "attrs"
      ],
      "additionalProperties": false
    },
    "taskList_node": {
      "type": "object",
      "properties": {
        "type": {
          "enum": [
            "taskList"
          ]
        },
        "content": {
          "type": "array",
          "items": {
            "$ref": "#/definitions/taskItem_node"
          },
          "minItems": 1
        },
        "attrs": {
          "type": "object",
          "properties": {
            "localId": {
              "type": "string"
            }
          },
          "required": [
            "localId"
          ],
          "additionalProperties": false
        }
      },
      "required": [
        "type",
        "content",
        "attrs"
      ],
      "additionalProperties": false
    },
    "extension_node": {
      "type": "object",
      "properties": {
        "type": {
          "enum": [
            "extension"
          ]
        },
        "attrs": {
          "type": "object",
          "properties": {
            "extensionKey": {
              "type": "string",
              "minLength": 1
            },
            "extensionType": {
              "type": "string",
              "minLength": 1
            },
            "parameters": {},
            "text": {
              "type": "string"
            },
            "layout": {
              "enum": [
                "wide",
                "full-width",
                "default"
              ]
            }
          },
          "required": [
            "extensionKey",
            "extensionType"
          ],
          "additionalProperties": false
        }
      },
      "required": [
        "type",
        "attrs"
      ],
      "additionalProperties": false
    },
    "inlineExtension_node": {
      "type": "object",
      "properties": {
        "type": {
          "enum": [
            "inlineExtension"
          ]
        },
        "attrs": {
          "type": "object",
          "properties": {
            "extensionKey": {
              "type": "string",
              "minLength": 1
            },
            "extensionType": {
              "type": "string",
              "minLength": 1
            },
            "parameters": {},
            "text": {
              "type": "string"
            }
          },
          "required": [
            "extensionKey",
            "extensionType"
          ],
          "additionalProperties": false
        }
      },
      "required": [
        "type",
        "attrs"
      ],
      "additionalProperties": false
    },
    "bodiedExtension_node": {
      "type": "object",
      "properties": {
        "type": {
          "enum": [
            "bodiedExtension"
          ]
        },
        "attrs": {
          "type": "object",
          "properties": {
            "extensionKey": {
              "type": "string",
              "minLength": 1
            },
            "extensionType": {
              "type": "string",
              "minLength": 1
            },
            "parameters": {},
            "text": {
              "type": "string"
            },
            "layout": {
              "enum": [
                "wide",
                "full-width",
                "default"
              ]
            }
          },
          "required": [
            "extensionKey",
            "extensionType"
          ],
          "additionalProperties": false
        },
        "content": {
          "$ref": "#/definitions/extension_content"
        }
      },
      "required": [
        "type",
        "attrs",
        "content"
      ],
      "additionalProperties": false
    },
    "date_node": {
      "type": "object",
      "properties": {
        "type": {
          "enum": [
            "date"
          ]
        },
        "attrs": {
          "type": "object",
          "properties": {
            "timestamp": {
              "type": "string",
              "minLength": 1
            }
          },
          "required": [
            "timestamp"
          ],
          "additionalProperties": false
        }
      },
      "required": [
        "type",
        "attrs"
      ],
      "additionalProperties": false
    },
    "placeholder_node": {
      "type": "object",
      "properties": {
        "type": {
          "enum": [
            "placeholder"
          ]
        },
        "attrs": {
          "type": "object",
          "properties": {
            "text": {
              "type": "string"
            }
          },
          "required": [
            "text"
          ],
          "additionalProperties": false
        }
      },
      "required": [
        "type",
        "attrs"
      ],
      "additionalProperties": false
    },
    "em_mark": {
      "type": "object",
      "properties": {
        "type": {
          "enum": [
            "em"
          ]
        }
      },
      "required": [
        "type"
      ],
      "additionalProperties": false
    },
    "code_mark": {
      "type": "object",
      "properties": {
        "type": {
          "enum": [
            "code"
          ]
        }
      },
      "required": [
        "type"
      ],
      "additionalProperties": false
    },
    "strike_mark": {
      "type": "object",
      "properties": {
        "type": {
          "enum": [
            "strike"
          ]
        }
      },
      "required": [
        "type"
      ],
      "additionalProperties": false
    },
    "strong_mark": {
      "type": "object",
      "properties": {
        "type": {
          "enum": [
            "strong"
          ]
        }
      },
      "required": [
        "type"
      ],
      "additionalProperties": false
    },
    "underline_mark": {
      "type": "object",
      "properties": {
        "type": {
          "enum": [
            "underline"
          ]
        }
      },
      "required": [
        "type"
      ],
      "additionalProperties": false
    },
    "link_mark": {
      "type": "object",
      "properties": {
        "type": {
          "enum": [
            "link"
          ]
        },
        "attrs": {
          "type": "object",
          "properties": {
            "href": {
              "type": "string"
            },
            "title": {
              "type": "string"
            },
            "id": {
              "type": "string"
            },
            "collection": {
              "type": "string"
            },
            "occurrenceKey": {
              "type": "string"
            }
          },
          "required": [
            "href"
          ],
          "additionalProperties": false
        }
      },
      "required": [
        "type",
        "attrs"
      ],
      "additionalProperties": false
    },
    "subsup_mark": {
      "type": "object",
      "properties": {
        "type": {
          "enum": [
            "subsup"
          ]
        },
        "attrs": {
          "type": "object",
          "properties": {
            "type": {
              "enum": [
                "sub",
                "sup"
              ]
            }
          },
          "required": [
            "type"
          ],
          "additionalProperties": false
        }
      },
      "required": [
        "type",
        "attrs"
      ],
      "additionalProperties": false
    },
    "textColor_mark": {
      "type": "object",
      "properties": {
        "type": {
          "enum": [
            "textColor"
          ]
        },
        "attrs": {
          "type": "object",
          "properties": {
            "color": {
              "type": "string",
              "pattern": "^#[0-9a-f]{6}$"
            }
          },
          "required": [
            "color"
          ],
          "additionalProperties": false
        }
      },
      "required": [
        "type",
        "attrs"
      ],
      "additionalProperties": false
    },
    "action_mark": {
      "type": "object",
      "properties": {
        "type": {
          "enum": [
            "action"
          ]
        },
        "attrs": {
          "type": "object",
          "properties": {
            "title": {
              "type": "string"
            },
            "key": {
              "type": "string"
            },
            "target": {
              "type": "object",
              "properties": {
                "receiver": {
                  "type": "string"
                },
                "key": {
                  "type": "string"
                }
              },
              "additionalProperties": false,
              "required": [
                "key"
              ]
            },
            "parameters": {}
          },
          "required": [
            "title",
            "target"
          ],
          "additionalProperties": false
        }
      },
      "required": [
        "type",
        "attrs"
      ],
      "additionalProperties": false
    },
    "codeBlock_node": {
      "type": "object",
      "properties": {
        "type": {
          "enum": [
            "codeBlock"
          ]
        },
        "content": {
          "type": "array",
          "items": {
            "allOf": [
              {
                "$ref": "#/definitions/text_node"
              },
              {
                "type": "object",
                "properties": {
                  "marks": {
                    "type": "array",
                    "maxItems": 0
                  }
                },
                "additionalProperties": true
              }
            ]
          }
        },
        "attrs": {
          "type": "object",
          "properties": {
            "language": {
              "enum": [
                "abap",
                "actionscript",
                "ada",
                "arduino",
                "autoit",
                "c",
                "c++",
                "clojure",
                "coffeescript",
                "csharp",
                "css",
                "cuda",
                "d",
                "dart",
                "delphi",
                "elixir",
                "erlang",
                "fortran",
                "foxpro",
                "go",
                "groovy",
                "haskell",
                "haxe",
                "html",
                "java",
                "javascript",
                "json",
                "julia",
                "kotlin",
                "latex",
                "livescript",
                "lua",
                "mathematica",
                "matlab",
                "objective-c",
                "objective-j",
                "objectpascal",
                "ocaml",
                "octave",
                "perl",
                "php",
                "powershell",
                "prolog",
                "puppet",
                "python",
                "qml",
                "r",
                "racket",
                "restructuredtext",
                "ruby",
                "rust",
                "sass",
                "scala",
                "scheme",
                "shell",
                "smalltalk",
                "sql",
                "standardml",
                "swift",
                "tcl",
                "tex",
                "typescript",
                "vala",
                "vbnet",
                "verilog",
                "vhdl",
                "xml",
                "xquery"
              ]
            }
          },
          "additionalProperties": false
        }
      },
      "required": [
        "type"
      ],
      "additionalProperties": false
    },
    "table_cell_content": {
      "type": "array",
      "items": {
        "anyOf": [
          {
            "$ref": "#/definitions/paragraph_node"
          },
          {
            "$ref": "#/definitions/bulletList_node"
          },
          {
            "$ref": "#/definitions/mediaSingle_node"
          },
          {
            "$ref": "#/definitions/orderedList_node"
          },
          {
            "$ref": "#/definitions/heading_node"
          },
          {
            "$ref": "#/definitions/panel_node"
          },
          {
            "$ref": "#/definitions/blockquote_node"
          },
          {
            "$ref": "#/definitions/rule_node"
          },
          {
            "$ref": "#/definitions/mediaGroup_node"
          },
          {
            "$ref": "#/definitions/applicationCard_node"
          },
          {
            "$ref": "#/definitions/decisionList_node"
          },
          {
            "$ref": "#/definitions/taskList_node"
          },
          {
            "$ref": "#/definitions/extension_node"
          },
          {
            "$ref": "#/definitions/codeBlock_node"
          }
        ]
      },
      "minItems": 1
    },
    "extension_content": {
      "type": "array",
      "items": {
        "anyOf": [
          {
            "$ref": "#/definitions/paragraph_node"
          },
          {
            "$ref": "#/definitions/bulletList_node"
          },
          {
            "$ref": "#/definitions/mediaSingle_node"
          },
          {
            "$ref": "#/definitions/orderedList_node"
          },
          {
            "$ref": "#/definitions/heading_node"
          },
          {
            "$ref": "#/definitions/panel_node"
          },
          {
            "$ref": "#/definitions/blockquote_node"
          },
          {
            "$ref": "#/definitions/rule_node"
          },
          {
            "$ref": "#/definitions/mediaGroup_node"
          },
          {
            "$ref": "#/definitions/table_node"
          },
          {
            "$ref": "#/definitions/applicationCard_node"
          },
          {
            "$ref": "#/definitions/decisionList_node"
          },
          {
            "$ref": "#/definitions/taskList_node"
          },
          {
            "$ref": "#/definitions/extension_node"
          },
          {
            "$ref": "#/definitions/codeBlock_node"
          }
        ]
      },
      "minItems": 1
    },
    "formatted_text_inline_node": {
      "allOf": [
        {
          "$ref": "#/definitions/text_node"
        },
        {
          "type": "object",
          "properties": {
            "marks": {
              "type": "array",
              "items": {
                "anyOf": [
                  {
                    "$ref": "#/definitions/em_mark"
                  },
                  {
                    "$ref": "#/definitions/strike_mark"
                  },
                  {
                    "$ref": "#/definitions/strong_mark"
                  },
                  {
                    "$ref": "#/definitions/underline_mark"
                  },
                  {
                    "$ref": "#/definitions/link_mark"
                  },
                  {
                    "$ref": "#/definitions/subsup_mark"
                  },
                  {
                    "$ref": "#/definitions/textColor_mark"
                  },
                  {
                    "$ref": "#/definitions/action_mark"
                  }
                ]
              }
            }
          },
          "additionalProperties": true
        }
      ]
    },
    "code_inline_node": {
      "allOf": [
        {
          "$ref": "#/definitions/text_node"
        },
        {
          "type": "object",
          "properties": {
            "marks": {
              "type": "array",
              "items": {
                "anyOf": [
                  {
                    "$ref": "#/definitions/code_mark"
                  },
                  {
                    "$ref": "#/definitions/link_mark"
                  }
                ]
              }
            }
          },
          "additionalProperties": true
        }
      ]
    },
    "inline_node": {
      "anyOf": [
        {
          "$ref": "#/definitions/hardBreak_node"
        },
        {
          "$ref": "#/definitions/emoji_node"
        },
        {
          "$ref": "#/definitions/mention_node"
        },
        {
          "$ref": "#/definitions/inlineExtension_node"
        },
        {
          "$ref": "#/definitions/date_node"
        },
        {
          "$ref": "#/definitions/placeholder_node"
        },
        {
          "$ref": "#/definitions/formatted_text_inline_node"
        },
        {
          "$ref": "#/definitions/code_inline_node"
        }
      ]
    },
    "doc_node": {
      "type": "object",
      "properties": {
        "version": {
          "enum": [
            1
          ]
        },
        "type": {
          "enum": [
            "doc"
          ]
        },
        "content": {
          "type": "array",
          "items": {
            "anyOf": [
              {
                "$ref": "#/definitions/paragraph_node"
              },
              {
                "$ref": "#/definitions/bulletList_node"
              },
              {
                "$ref": "#/definitions/mediaSingle_node"
              },
              {
                "$ref": "#/definitions/orderedList_node"
              },
              {
                "$ref": "#/definitions/heading_node"
              },
              {
                "$ref": "#/definitions/panel_node"
              },
              {
                "$ref": "#/definitions/blockquote_node"
              },
              {
                "$ref": "#/definitions/rule_node"
              },
              {
                "$ref": "#/definitions/mediaGroup_node"
              },
              {
                "$ref": "#/definitions/table_node"
              },
              {
                "$ref": "#/definitions/applicationCard_node"
              },
              {
                "$ref": "#/definitions/decisionList_node"
              },
              {
                "$ref": "#/definitions/taskList_node"
              },
              {
                "$ref": "#/definitions/extension_node"
              },
              {
                "$ref": "#/definitions/bodiedExtension_node"
              },
              {
                "$ref": "#/definitions/codeBlock_node"
              }
            ]
          }
        }
      },
      "required": [
        "version",
        "type",
        "content"
      ],
      "additionalProperties": false
    }
  }
}
